[
    {
        "ParameterKey": "Versioning",
        "ParameterValue": "Enabled"
    },
    {
        "ParameterKey": "BucketName",
        "ParameterValue": "master-s3-stack"
    },
   
    {
        "ParameterKey": "AccessControl",
        "ParameterValue": "PublicRead"
    }
]